<?xml version="1.0" encoding="UTF-8" standalone="no"?>
<svg
   xmlns:dc="http://purl.org/dc/elements/1.1/"
   xmlns:cc="http://creativecommons.org/ns#"
   xmlns:rdf="http://www.w3.org/1999/02/22-rdf-syntax-ns#"
   xmlns:svg="http://www.w3.org/2000/svg"
   xmlns="http://www.w3.org/2000/svg"
   xmlns:sodipodi="http://sodipodi.sourceforge.net/DTD/sodipodi-0.dtd"
   xmlns:inkscape="http://www.inkscape.org/namespaces/inkscape"
   sodipodi:docname="KanbanAppLogo.svg"
   inkscape:version="1.0 (1.0+r73+1)"
   width="64.0px"
   height="64.0px"
   viewBox="0 0 64.0 64.0"
   version="1.1"
   id="SVGRoot">
  <defs
     id="defs318">
    <rect
       id="rect348"
       height="55"
       width="55"
       y="5"
       x="5" />
  </defs>
  <sodipodi:namedview
     inkscape:window-maximized="1"
     inkscape:window-y="27"
     inkscape:window-x="0"
     inkscape:window-height="2096"
     inkscape:window-width="3840"
     showgrid="true"
     inkscape:document-rotation="0"
     inkscape:current-layer="layer1"
     inkscape:document-units="px"
     inkscape:cy="52.068977"
     inkscape:cx="21.063662"
     inkscape:zoom="11.2"
     inkscape:pageshadow="2"
     inkscape:pageopacity="0.0"
     borderopacity="1.0"
     bordercolor="#666666"
     pagecolor="#ffffff"
     id="base">
    <inkscape:grid
       type="xygrid"
       id="grid327" />
  </sodipodi:namedview>
  <metadata
     id="metadata321">
    <rdf:RDF>
      <cc:Work
         rdf:about="">
        <dc:format>image/svg+xml</dc:format>
        <dc:type
           rdf:resource="http://purl.org/dc/dcmitype/StillImage" />
        <dc:title></dc:title>
      </cc:Work>
    </rdf:RDF>
  </metadata>
  <g
     id="layer1"
     inkscape:groupmode="layer"
     inkscape:label="Layer 1">
    <text
       transform="matrix(2.2622636,0,0,1.8904796,-15.14277,-16.514971)"
       style="font-style:normal;font-weight:normal;font-size:40px;line-height:1.25;font-family:sans-serif;white-space:pre;shape-inside:url(#rect348);fill:#666666;fill-opacity:1;stroke:none;"
       id="text346"
       xml:space="preserve"><tspan
         x="5"
         y="40.390625"><tspan
           style="fill:#666666">K</tspan></tspan></text>
    <path
       id="path352"
       d="m 40,17 v 28 l 8,7 V 10 Z"
       style="fill:#800080;stroke:#000000;stroke-width:1px;stroke-linecap:butt;stroke-linejoin:miter;stroke-opacity:1" />
    <path
       id="path354"
       d="m 43.991391,47.763052 -3.4562,-3.015503 0.0022,-13.75 0.0022,-13.75 3.453997,-3.010329 3.453998,-3.010329 0.02271,9.914796 c 0.01249,5.453137 0.01249,14.352262 0,19.775832 l -0.02271,9.861037 z"
       style="fill:#008080;stroke:none;stroke-width:0.0892857" />
    <path
       id="path356"
       d="M 43.943127,47.665514 40.617234,44.749988 V 30.997104 17.24422 l 3.221258,-2.810836 c 1.771692,-1.545959 3.298478,-2.865959 3.392857,-2.933333 0.169126,-0.120732 0.171599,0.16013 0.171599,19.486607 0,10.785008 -0.03013,19.605793 -0.06696,19.601744 -0.03683,-0.004 -1.563616,-1.319348 -3.392857,-2.922888 z"
       style="fill:#a0a0a0;stroke:none;stroke-width:0.0892857" />
    <path
       id="path358"
       d="M 43.943127,47.667528 40.617234,44.750875 V 30.995403 17.239931 l 3.272568,-2.853334 c 1.799913,-1.569334 3.326698,-2.885465 3.392857,-2.924735 0.100713,-0.05978 0.120289,3.118748 0.120289,19.53125 0,10.781458 -0.03013,19.600045 -0.06696,19.59686 -0.03683,-0.0032 -1.563616,-1.318285 -3.392857,-2.922444 z"
       style="fill:#a0a0a0;stroke:none;stroke-width:0.0892857" />
    <path
       id="path360"
       d="m 46.909079,50.258709 c -0.197967,-0.182924 -1.694618,-1.49584 -3.325892,-2.917591 L 40.617234,44.756117 V 30.996699 17.23728 l 3.271746,-2.852009 c 1.79946,-1.568604 3.326245,-2.884139 3.392857,-2.923409 0.101807,-0.06002 0.121111,3.053118 0.121111,19.53125 0,10.781458 -0.03013,19.601647 -0.06696,19.600419 -0.03683,-0.0012 -0.228937,-0.151898 -0.426905,-0.334822 z"
       style="fill:#800080;stroke:none;stroke-width:0.0892857" />
    <path
       id="path414"
       d="M 43.98777,49.093679 39.545805,45.194505 V 30.997542 16.800578 l 4.464286,-3.906657 4.464286,-3.9066562 V 30.996871 c 0,12.105283 -0.01004,22.006541 -0.02232,22.002794 -0.01228,-0.0038 -2.021205,-1.76144 -4.464285,-3.905986 z m 3.59375,-18.09613 c 0,-10.975447 -0.02088,-19.955358 -0.0464,-19.955358 -0.02552,0 -1.632662,1.389129 -3.571428,3.086953 l -3.525031,3.086952 v 13.781432 13.781431 l 3.504465,3.08048 c 1.927455,1.694263 3.534598,3.083401 3.571428,3.086973 0.03683,0.0036 0.06696,-8.973417 0.06696,-19.948863 z"
       style="fill:#800080;stroke-width:0.0892857" />
  </g>
</svg>
